{"albums": {"href": "https://api.spotify.com/v1/search?query=juice+wrld&type=album&market=US&offset=0&limit=20", "items": [{"album_type": "album", "artists": [{"external_urls": {"spotify": "https://open.spotify.com/artist/4MCBfE4596Uoi2O4DtmEMz"}, "href": "https://api.spotify.com/v1/artists/4MCBfE4596Uoi2O4DtmEMz", "id": "4MCBfE4596Uoi2O4DtmEMz", "name": "Juice WRLD", "type": "artist", "uri": "spotify:artist:4MCBfE4596Uoi2O4DtmEMz"}], "external_urls": {"spotify": "https://open.spotify.com/album/6n9DKpOxwifT5hOXtgLZSL"}, "href": "https://api.spotify.com/v1/albums/6n9DKpOxwifT5hOXtgLZSL", "id": "6n9DKpOxwifT5hOXtgLZSL", "images": [{"height": 640, "url": "https://i.scdn.co/image/ab67616d0000b2733e0698e4ae5ffb82a005aeeb", "width": 640}, {"height": 300, "url": "https://i.scdn.co/image/ab67616d00001e023e0698e4ae5ffb82a005aeeb", "width": 300}, {"height": 64, "url": "https://i.scdn.co/image/ab67616d000048513e0698e4ae5ffb82a005aeeb", "width": 64}], "name": "Legends Never Die", "release_date": "2020-07-10", "release_date_precision": "day", "total_tracks": 22, "type": "album", "uri": "spotify:album:6n9DKpOxwifT5hOXtgLZSL"}, {"album_type": "album", "artists": [{"external_urls": {"spotify": "https://open.spotify.com/artist/4MCBfE4596Uoi2O4DtmEMz"}, "href": "https://api.spotify.com/v1/artists/4MCBfE4596Uoi2O4DtmEMz", "id": "4MCBfE4596Uoi2O4DtmEMz", "name": "Juice WRLD", "type": "artist", "uri": "spotify:artist:4MCBfE4596Uoi2O4DtmEMz"}], "external_urls": {"spotify": "https://open.spotify.com/album/6tkjU4Umpo79wwkgPMV3nZ"}, "href": "https://api.spotify.com/v1/albums/6tkjU4Umpo79wwkgPMV3nZ", "id": "6tkjU4Umpo79wwkgPMV3nZ", "images": [{"height": 640, "url": "https://i.scdn.co/image/ab67616d0000b273f7db43292a6a99b21b51d5b4", "width": 640}, {"height": 300, "url": "https://i.scdn.co/image/ab67616d00001e02f7db43292a6a99b21b51d5b4", "width": 300}, {"height": 64, "url": "https://i.scdn.co/image/ab67616d00004851f7db43292a6a99b21b51d5b4", "width": 64}], "name": "Goodbye & Good Riddance", "release_date": "2018-12-10", "release_date_precision": "day", "total_tracks": 17, "type": "album", "uri": "spotify:album:6tkjU4Umpo79wwkgPMV3nZ"}, {"album_type": "album", "artists": [{"external_urls": {"spotify": "https://open.spotify.com/artist/4MCBfE4596Uoi2O4DtmEMz"}, "href": "https://api.spotify.com/v1/artists/4MCBfE4596Uoi2O4DtmEMz", "id": "4MCBfE4596Uoi2O4DtmEMz", "name": "Juice WRLD", "type": "artist", "uri": "spotify:artist:4MCBfE4596Uoi2O4DtmEMz"}], "external_urls": {"spotify": "https://open.spotify.com/album/1GYVNOzwhx1nMcIJDogSNp"}, "href": "https://api.spotify.com/v1/albums/1GYVNOzwhx1nMcIJDogSNp", "id": "1GYVNOzwhx1nMcIJDogSNp", "images": [{"height": 640, "url": "https://i.scdn.co/image/ab67616d0000b273af149eb4002f65f83afc63c4", "width": 640}, {"height": 300, "url": "https://i.scdn.co/image/ab67616d00001e02af149eb4002f65f83afc63c4", "width": 300}, {"height": 64, "url": "https://i.scdn.co/image/ab67616d00004851af149eb4002f65f83afc63c4", "width": 64}], "name": "Death Race For Love", "release_date": "2019-03-08", "release_date_precision": "day", "total_tracks": 22, "type": "album", "uri": "spotify:album:1GYVNOzwhx1nMcIJDogSNp"}, {"album_type": "album", "artists": [{"external_urls": {"spotify": "https://open.spotify.com/artist/1RyvyyTE3xzB2ZywiAwp0i"}, "href": "https://api.spotify.com/v1/artists/1RyvyyTE3xzB2ZywiAwp0i", "id": "1RyvyyTE3xzB2ZywiAwp0i", "name": "Future", "type": "artist", "uri": "spotify:artist:1RyvyyTE3xzB2ZywiAwp0i"}, {"external_urls": {"spotify": "https://open.spotify.com/artist/4MCBfE4596Uoi2O4DtmEMz"}, "href": "https://api.spotify.com/v1/artists/4MCBfE4596Uoi2O4DtmEMz", "id": "4MCBfE4596Uoi2O4DtmEMz", "name": "Juice WRLD", "type": "artist", "uri": "spotify:artist:4MCBfE4596Uoi2O4DtmEMz"}], "external_urls": {"spotify": "https://open.spotify.com/album/6P9PZjWXoCRF5b66BafPKY"}, "href": "https://api.spotify.com/v1/albums/6P9PZjWXoCRF5b66BafPKY", "id": "6P9PZjWXoCRF5b66BafPKY", "images": [{"height": 640, "url": "https://i.scdn.co/image/ab67616d0000b273644c510e8d4c02ae69028297", "width": 640}, {"height": 300, "url": "https://i.scdn.co/image/ab67616d00001e02644c510e8d4c02ae69028297", "width": 300}, {"height": 64, "url": "https://i.scdn.co/image/ab67616d00004851644c510e8d4c02ae69028297", "width": 64}], "name": "Future & Juice WRLD Present... WRLD ON DRUGS", "release_date": "2018-10-19", "release_date_precision": "day", "total_tracks": 16, "type": "album", "uri": "spotify:album:6P9PZjWXoCRF5b66BafPKY"}, {"album_type": "single", "artists": [{"external_urls": {"spotify": "https://open.spotify.com/artist/4MCBfE4596Uoi2O4DtmEMz"}, "href": "https://api.spotify.com/v1/artists/4MCBfE4596Uoi2O4DtmEMz", "id": "4MCBfE4596Uoi2O4DtmEMz", "name": "Juice WRLD", "type": "artist", "uri": "spotify:artist:4MCBfE4596Uoi2O4DtmEMz"}, {"external_urls": {"spotify": "https://open.spotify.com/artist/2tIP7SsRs7vjIcLrU85W8J"}, "href": "https://api.spotify.com/v1/artists/2tIP7SsRs7vjIcLrU85W8J", "id": "2tIP7SsRs7vjIcLrU85W8J", "name": "The Kid LAROI", "type": "artist", "uri": "spotify:artist:2tIP7SsRs7vjIcLrU85W8J"}], "external_urls": {"spotify": "https://open.spotify.com/album/16ilcI6xOgSh3Jd3bxF6MI"}, "href": "https://api.spotify.com/v1/albums/16ilcI6xOgSh3Jd3bxF6MI", "id": "16ilcI6xOgSh3Jd3bxF6MI", "images": [{"height": 640, "url": "https://i.scdn.co/image/ab67616d0000b273c036b68d0f08a4c3d05e1a34", "width": 640}, {"height": 300, "url": "https://i.scdn.co/image/ab67616d00001e02c036b68d0f08a4c3d05e1a34", "width": 300}, {"height": 64, "url": "https://i.scdn.co/image/ab67616d00004851c036b68d0f08a4c3d05e1a34", "width": 64}], "name": "Reminds Me Of You", "release_date": "2020-12-08", "release_date_precision": "day", "total_tracks": 1, "type": "album", "uri": "spotify:album:16ilcI6xOgSh3Jd3bxF6MI"}, {"album_type": "single", "artists": [{"external_urls": {"spotify": "https://open.spotify.com/artist/4MCBfE4596Uoi2O4DtmEMz"}, "href": "https://api.spotify.com/v1/artists/4MCBfE4596Uoi2O4DtmEMz", "id": "4MCBfE4596Uoi2O4DtmEMz", "name": "Juice WRLD", "type": "artist", "uri": "spotify:artist:4MCBfE4596Uoi2O4DtmEMz"}, {"external_urls": {"spotify": "https://open.spotify.com/artist/7wlFDEWiM5OoIAt8RSli8b"}, "href": "https://api.spotify.com/v1/artists/7wlFDEWiM5OoIAt8RSli8b", "id": "7wlFDEWiM5OoIAt8RSli8b", "name": "YoungBoy Never Broke Again", "type": "artist", "uri": "spotify:artist:7wlFDEWiM5OoIAt8RSli8b"}], "external_urls": {"spotify": "https://open.spotify.com/album/3t6Z2qoBVCS4NHNI25XECH"}, "href": "https://api.spotify.com/v1/albums/3t6Z2qoBVCS4NHNI25XECH", "id": "3t6Z2qoBVCS4NHNI25XECH", "images": [{"height": 640, "url": "https://i.scdn.co/image/ab67616d0000b2735b4bee4c0dfe7f1ec4b2cc6d", "width": 640}, {"height": 300, "url": "https://i.scdn.co/image/ab67616d00001e025b4bee4c0dfe7f1ec4b2cc6d", "width": 300}, {"height": 64, "url": "https://i.scdn.co/image/ab67616d000048515b4bee4c0dfe7f1ec4b2cc6d", "width": 64}], "name": "Bandit (with YoungBoy Never Broke Again)", "release_date": "2019-10-04", "release_date_precision": "day", "total_tracks": 1, "type": "album", "uri": "spotify:album:3t6Z2qoBVCS4NHNI25XECH"}, {"album_type": "single", "artists": [{"external_urls": {"spotify": "https://open.spotify.com/artist/4MCBfE4596Uoi2O4DtmEMz"}, "href": "https://api.spotify.com/v1/artists/4MCBfE4596Uoi2O4DtmEMz", "id": "4MCBfE4596Uoi2O4DtmEMz", "name": "Juice WRLD", "type": "artist", "uri": "spotify:artist:4MCBfE4596Uoi2O4DtmEMz"}, {"external_urls": {"spotify": "https://open.spotify.com/artist/5CiGnKThu5ctn9pBxv7DGa"}, "href": "https://api.spotify.com/v1/artists/5CiGnKThu5ctn9pBxv7DGa", "id": "5CiGnKThu5ctn9pBxv7DGa", "name": "benny blanco", "type": "artist", "uri": "spotify:artist:5CiGnKThu5ctn9pBxv7DGa"}], "external_urls": {"spotify": "https://open.spotify.com/album/16EqCl0UoPe3xSIFg4xO6T"}, "href": "https://api.spotify.com/v1/albums/16EqCl0UoPe3xSIFg4xO6T", "id": "16EqCl0UoPe3xSIFg4xO6T", "images": [{"height": 640, "url": "https://i.scdn.co/image/ab67616d0000b273147c68fd1aca248ed8847dcb", "width": 640}, {"height": 300, "url": "https://i.scdn.co/image/ab67616d00001e02147c68fd1aca248ed8847dcb", "width": 300}, {"height": 64, "url": "https://i.scdn.co/image/ab67616d00004851147c68fd1aca248ed8847dcb", "width": 64}], "name": "Real Shit (with benny blanco)", "release_date": "2020-12-02", "release_date_precision": "day", "total_tracks": 1, "type": "album", "uri": "spotify:album:16EqCl0UoPe3xSIFg4xO6T"}, {"album_type": "single", "artists": [{"external_urls": {"spotify": "https://open.spotify.com/artist/4MCBfE4596Uoi2O4DtmEMz"}, "href": "https://api.spotify.com/v1/artists/4MCBfE4596Uoi2O4DtmEMz", "id": "4MCBfE4596Uoi2O4DtmEMz", "name": "Juice WRLD", "type": "artist", "uri": "spotify:artist:4MCBfE4596Uoi2O4DtmEMz"}], "external_urls": {"spotify": "https://open.spotify.com/album/7zfsq2Hboh0SZMcWo2ASkD"}, "href": "https://api.spotify.com/v1/albums/7zfsq2Hboh0SZMcWo2ASkD", "id": "7zfsq2Hboh0SZMcWo2ASkD", "images": [{"height": 640, "url": "https://i.scdn.co/image/ab67616d0000b273f9061a1abb0b9a27a78c9916", "width": 640}, {"height": 300, "url": "https://i.scdn.co/image/ab67616d00001e02f9061a1abb0b9a27a78c9916", "width": 300}, {"height": 64, "url": "https://i.scdn.co/image/ab67616d00004851f9061a1abb0b9a27a78c9916", "width": 64}], "name": "Legends", "release_date": "2018-06-22", "release_date_precision": "day", "total_tracks": 1, "type": "album", "uri": "spotify:album:7zfsq2Hboh0SZMcWo2ASkD"}, {"album_type": "single", "artists": [{"external_urls": {"spotify": "https://open.spotify.com/artist/1cNDP5yjU5vjeR8qMf4grg"}, "href": "https://api.spotify.com/v1/artists/1cNDP5yjU5vjeR8qMf4grg", "id": "1cNDP5yjU5vjeR8qMf4grg", "name": "YNW Melly", "type": "artist", "uri": "spotify:artist:1cNDP5yjU5vjeR8qMf4grg"}, {"external_urls": {"spotify": "https://open.spotify.com/artist/4MCBfE4596Uoi2O4DtmEMz"}, "href": "https://api.spotify.com/v1/artists/4MCBfE4596Uoi2O4DtmEMz", "id": "4MCBfE4596Uoi2O4DtmEMz", "name": "Juice WRLD", "type": "artist", "uri": "spotify:artist:4MCBfE4596Uoi2O4DtmEMz"}], "external_urls": {"spotify": "https://open.spotify.com/album/4WE4KsdoZbISWStEzfcxvH"}, "href": "https://api.spotify.com/v1/albums/4WE4KsdoZbISWStEzfcxvH", "id": "4WE4KsdoZbISWStEzfcxvH", "images": [{"height": 640, "url": "https://i.scdn.co/image/ab67616d0000b273b458693b51ec72c6a1e9c8e4", "width": 640}, {"height": 300, "url": "https://i.scdn.co/image/ab67616d00001e02b458693b51ec72c6a1e9c8e4", "width": 300}, {"height": 64, "url": "https://i.scdn.co/image/ab67616d00004851b458693b51ec72c6a1e9c8e4", "width": 64}], "name": "Suicidal (Remix) [feat. Juice WRLD]", "release_date": "2020-03-13", "release_date_precision": "day", "total_tracks": 1, "type": "album", "uri": "spotify:album:4WE4KsdoZbISWStEzfcxvH"}, {"album_type": "single", "artists": [{"external_urls": {"spotify": "https://open.spotify.com/artist/5CiGnKThu5ctn9pBxv7DGa"}, "href": "https://api.spotify.com/v1/artists/5CiGnKThu5ctn9pBxv7DGa", "id": "5CiGnKThu5ctn9pBxv7DGa", "name": "benny blanco", "type": "artist", "uri": "spotify:artist:5CiGnKThu5ctn9pBxv7DGa"}, {"external_urls": {"spotify": "https://open.spotify.com/artist/4MCBfE4596Uoi2O4DtmEMz"}, "href": "https://api.spotify.com/v1/artists/4MCBfE4596Uoi2O4DtmEMz", "id": "4MCBfE4596Uoi2O4DtmEMz", "name": "Juice WRLD", "type": "artist", "uri": "spotify:artist:4MCBfE4596Uoi2O4DtmEMz"}], "external_urls": {"spotify": "https://open.spotify.com/album/669dgT2kmrAMrrPaEEHWyE"}, "href": "https://api.spotify.com/v1/albums/669dgT2kmrAMrrPaEEHWyE", "id": "669dgT2kmrAMrrPaEEHWyE", "images": [{"height": 640, "url": "https://i.scdn.co/image/ab67616d0000b2739e714501730245ec76623000", "width": 640}, {"height": 300, "url": "https://i.scdn.co/image/ab67616d00001e029e714501730245ec76623000", "width": 300}, {"height": 64, "url": "https://i.scdn.co/image/ab67616d000048519e714501730245ec76623000", "width": 64}], "name": "Graduation (with Juice WRLD)", "release_date": "2019-08-30", "release_date_precision": "day", "total_tracks": 1, "type": "album", "uri": "spotify:album:669dgT2kmrAMrrPaEEHWyE"}, {"album_type": "single", "artists": [{"external_urls": {"spotify": "https://open.spotify.com/artist/4MCBfE4596Uoi2O4DtmEMz"}, "href": "https://api.spotify.com/v1/artists/4MCBfE4596Uoi2O4DtmEMz", "id": "4MCBfE4596Uoi2O4DtmEMz", "name": "Juice WRLD", "type": "artist", "uri": "spotify:artist:4MCBfE4596Uoi2O4DtmEMz"}], "external_urls": {"spotify": "https://open.spotify.com/album/5wi0oKiF99ZVACf6oTTsp2"}, "href": "https://api.spotify.com/v1/albums/5wi0oKiF99ZVACf6oTTsp2", "id": "5wi0oKiF99ZVACf6oTTsp2", "images": [{"height": 640, "url": "https://i.scdn.co/image/ab67616d0000b273401ea2c7ac7ef87bd32c990f", "width": 640}, {"height": 300, "url": "https://i.scdn.co/image/ab67616d00001e02401ea2c7ac7ef87bd32c990f", "width": 300}, {"height": 64, "url": "https://i.scdn.co/image/ab67616d00004851401ea2c7ac7ef87bd32c990f", "width": 64}], "name": "Let Me Know (I Wonder Why Freestyle)", "release_date": "2019-12-07", "release_date_precision": "day", "total_tracks": 1, "type": "album", "uri": "spotify:album:5wi0oKiF99ZVACf6oTTsp2"}, {"album_type": "single", "artists": [{"external_urls": {"spotify": "https://open.spotify.com/artist/0X2BH1fck6amBIoJhDVmmJ"}, "href": "https://api.spotify.com/v1/artists/0X2BH1fck6amBIoJhDVmmJ", "id": "0X2BH1fck6amBIoJhDVmmJ", "name": "Ellie Goulding", "type": "artist", "uri": "spotify:artist:0X2BH1fck6amBIoJhDVmmJ"}, {"external_urls": {"spotify": "https://open.spotify.com/artist/4MCBfE4596Uoi2O4DtmEMz"}, "href": "https://api.spotify.com/v1/artists/4MCBfE4596Uoi2O4DtmEMz", "id": "4MCBfE4596Uoi2O4DtmEMz", "name": "Juice WRLD", "type": "artist", "uri": "spotify:artist:4MCBfE4596Uoi2O4DtmEMz"}], "external_urls": {"spotify": "https://open.spotify.com/album/29FoTD5vBY3Fq1QWhbl3FM"}, "href": "https://api.spotify.com/v1/albums/29FoTD5vBY3Fq1QWhbl3FM", "id": "29FoTD5vBY3Fq1QWhbl3FM", "images": [{"height": 640, "url": "https://i.scdn.co/image/ab67616d0000b273dc854e032e8588d5e75eebc6", "width": 640}, {"height": 300, "url": "https://i.scdn.co/image/ab67616d00001e02dc854e032e8588d5e75eebc6", "width": 300}, {"height": 64, "url": "https://i.scdn.co/image/ab67616d00004851dc854e032e8588d5e75eebc6", "width": 64}], "name": "Hate Me (with Juice WRLD)", "release_date": "2019-06-26", "release_date_precision": "day", "total_tracks": 1, "type": "album", "uri": "spotify:album:29FoTD5vBY3Fq1QWhbl3FM"}, {"album_type": "single", "artists": [{"external_urls": {"spotify": "https://open.spotify.com/artist/4MCBfE4596Uoi2O4DtmEMz"}, "href": "https://api.spotify.com/v1/artists/4MCBfE4596Uoi2O4DtmEMz", "id": "4MCBfE4596Uoi2O4DtmEMz", "name": "Juice WRLD", "type": "artist", "uri": "spotify:artist:4MCBfE4596Uoi2O4DtmEMz"}], "external_urls": {"spotify": "https://open.spotify.com/album/2Md4nsKyIDbWFYrlvS9rKL"}, "href": "https://api.spotify.com/v1/albums/2Md4nsKyIDbWFYrlvS9rKL", "id": "2Md4nsKyIDbWFYrlvS9rKL", "images": [{"height": 640, "url": "https://i.scdn.co/image/ab67616d0000b2739bc762efb2fc7252289b2a26", "width": 640}, {"height": 300, "url": "https://i.scdn.co/image/ab67616d00001e029bc762efb2fc7252289b2a26", "width": 300}, {"height": 64, "url": "https://i.scdn.co/image/ab67616d000048519bc762efb2fc7252289b2a26", "width": 64}], "name": "Rich And Blind", "release_date": "2018-06-22", "release_date_precision": "day", "total_tracks": 1, "type": "album", "uri": "spotify:album:2Md4nsKyIDbWFYrlvS9rKL"}, {"album_type": "single", "artists": [{"external_urls": {"spotify": "https://open.spotify.com/artist/4MCBfE4596Uoi2O4DtmEMz"}, "href": "https://api.spotify.com/v1/artists/4MCBfE4596Uoi2O4DtmEMz", "id": "4MCBfE4596Uoi2O4DtmEMz", "name": "Juice WRLD", "type": "artist", "uri": "spotify:artist:4MCBfE4596Uoi2O4DtmEMz"}, {"external_urls": {"spotify": "https://open.spotify.com/artist/64KEffDW9EtZ1y2vBYgq8T"}, "href": "https://api.spotify.com/v1/artists/64KEffDW9EtZ1y2vBYgq8T", "id": "64KEffDW9EtZ1y2vBYgq8T", "name": "Marshmello", "type": "artist", "uri": "spotify:artist:64KEffDW9EtZ1y2vBYgq8T"}], "external_urls": {"spotify": "https://open.spotify.com/album/5Cje8lHuyJG88V5Rvx21mm"}, "href": "https://api.spotify.com/v1/albums/5Cje8lHuyJG88V5Rvx21mm", "id": "5Cje8lHuyJG88V5Rvx21mm", "images": [{"height": 640, "url": "https://i.scdn.co/image/ab67616d0000b273791d4db595cbe7848adfe74a", "width": 640}, {"height": 300, "url": "https://i.scdn.co/image/ab67616d00001e02791d4db595cbe7848adfe74a", "width": 300}, {"height": 64, "url": "https://i.scdn.co/image/ab67616d00004851791d4db595cbe7848adfe74a", "width": 64}], "name": "Come & Go (with Marshmello)", "release_date": "2020-07-09", "release_date_precision": "day", "total_tracks": 1, "type": "album", "uri": "spotify:album:5Cje8lHuyJG88V5Rvx21mm"}, {"album_type": "single", "artists": [{"external_urls": {"spotify": "https://open.spotify.com/artist/4MCBfE4596Uoi2O4DtmEMz"}, "href": "https://api.spotify.com/v1/artists/4MCBfE4596Uoi2O4DtmEMz", "id": "4MCBfE4596Uoi2O4DtmEMz", "name": "Juice WRLD", "type": "artist", "uri": "spotify:artist:4MCBfE4596Uoi2O4DtmEMz"}, {"external_urls": {"spotify": "https://open.spotify.com/artist/1Xyo4u8uXC1ZmMpatF05PJ"}, "href": "https://api.spotify.com/v1/artists/1Xyo4u8uXC1ZmMpatF05PJ", "id": "1Xyo4u8uXC1ZmMpatF05PJ", "name": "The Weeknd", "type": "artist", "uri": "spotify:artist:1Xyo4u8uXC1ZmMpatF05PJ"}], "external_urls": {"spotify": "https://open.spotify.com/album/0iW4rP7Mib8M3nnhkKU5N7"}, "href": "https://api.spotify.com/v1/albums/0iW4rP7Mib8M3nnhkKU5N7", "id": "0iW4rP7Mib8M3nnhkKU5N7", "images": [{"height": 640, "url": "https://i.scdn.co/image/ab67616d0000b273510aa550d334384b01cad546", "width": 640}, {"height": 300, "url": "https://i.scdn.co/image/ab67616d00001e02510aa550d334384b01cad546", "width": 300}, {"height": 64, "url": "https://i.scdn.co/image/ab67616d00004851510aa550d334384b01cad546", "width": 64}], "name": "Smile (with The Weeknd)", "release_date": "2020-08-07", "release_date_precision": "day", "total_tracks": 1, "type": "album", "uri": "spotify:album:0iW4rP7Mib8M3nnhkKU5N7"}, {"album_type": "single", "artists": [{"external_urls": {"spotify": "https://open.spotify.com/artist/5CiGnKThu5ctn9pBxv7DGa"}, "href": "https://api.spotify.com/v1/artists/5CiGnKThu5ctn9pBxv7DGa", "id": "5CiGnKThu5ctn9pBxv7DGa", "name": "benny blanco", "type": "artist", "uri": "spotify:artist:5CiGnKThu5ctn9pBxv7DGa"}, {"external_urls": {"spotify": "https://open.spotify.com/artist/4MCBfE4596Uoi2O4DtmEMz"}, "href": "https://api.spotify.com/v1/artists/4MCBfE4596Uoi2O4DtmEMz", "id": "4MCBfE4596Uoi2O4DtmEMz", "name": "Juice WRLD", "type": "artist", "uri": "spotify:artist:4MCBfE4596Uoi2O4DtmEMz"}], "external_urls": {"spotify": "https://open.spotify.com/album/1L5crFW0oLBfmg007gKzxx"}, "href": "https://api.spotify.com/v1/albums/1L5crFW0oLBfmg007gKzxx", "id": "1L5crFW0oLBfmg007gKzxx", "images": [{"height": 640, "url": "https://i.scdn.co/image/ab67616d0000b2737d8dd43ea37672e39636d2f2", "width": 640}, {"height": 300, "url": "https://i.scdn.co/image/ab67616d00001e027d8dd43ea37672e39636d2f2", "width": 300}, {"height": 64, "url": "https://i.scdn.co/image/ab67616d000048517d8dd43ea37672e39636d2f2", "width": 64}], "name": "Roses (with Juice WRLD feat. Brendon Urie)", "release_date": "2018-12-05", "release_date_precision": "day", "total_tracks": 1, "type": "album", "uri": "spotify:album:1L5crFW0oLBfmg007gKzxx"}, {"album_type": "album", "artists": [{"external_urls": {"spotify": "https://open.spotify.com/artist/4MCBfE4596Uoi2O4DtmEMz"}, "href": "https://api.spotify.com/v1/artists/4MCBfE4596Uoi2O4DtmEMz", "id": "4MCBfE4596Uoi2O4DtmEMz", "name": "Juice WRLD", "type": "artist", "uri": "spotify:artist:4MCBfE4596Uoi2O4DtmEMz"}], "external_urls": {"spotify": "https://open.spotify.com/album/3rt9CHTA1UdpNZRqEtlPbl"}, "href": "https://api.spotify.com/v1/albums/3rt9CHTA1UdpNZRqEtlPbl", "id": "3rt9CHTA1UdpNZRqEtlPbl", "images": [{"height": 640, "url": "https://i.scdn.co/image/ab67616d0000b2735059100e732e6e17b9adbf09", "width": 640}, {"height": 300, "url": "https://i.scdn.co/image/ab67616d00001e025059100e732e6e17b9adbf09", "width": 300}, {"height": 64, "url": "https://i.scdn.co/image/ab67616d000048515059100e732e6e17b9adbf09", "width": 64}], "name": "Legends Never Die", "release_date": "2020-07-10", "release_date_precision": "day", "total_tracks": 22, "type": "album", "uri": "spotify:album:3rt9CHTA1UdpNZRqEtlPbl"}, {"album_type": "single", "artists": [{"external_urls": {"spotify": "https://open.spotify.com/artist/4MCBfE4596Uoi2O4DtmEMz"}, "href": "https://api.spotify.com/v1/artists/4MCBfE4596Uoi2O4DtmEMz", "id": "4MCBfE4596Uoi2O4DtmEMz", "name": "Juice WRLD", "type": "artist", "uri": "spotify:artist:4MCBfE4596Uoi2O4DtmEMz"}, {"external_urls": {"spotify": "https://open.spotify.com/artist/1Xyo4u8uXC1ZmMpatF05PJ"}, "href": "https://api.spotify.com/v1/artists/1Xyo4u8uXC1ZmMpatF05PJ", "id": "1Xyo4u8uXC1ZmMpatF05PJ", "name": "The Weeknd", "type": "artist", "uri": "spotify:artist:1Xyo4u8uXC1ZmMpatF05PJ"}], "external_urls": {"spotify": "https://open.spotify.com/album/1NJfa8mJWJjYzigrMU6Fd3"}, "href": "https://api.spotify.com/v1/albums/1NJfa8mJWJjYzigrMU6Fd3", "id": "1NJfa8mJWJjYzigrMU6Fd3", "images": [{"height": 640, "url": "https://i.scdn.co/image/ab67616d0000b2734dd256ede43a7147125d8194", "width": 640}, {"height": 300, "url": "https://i.scdn.co/image/ab67616d00001e024dd256ede43a7147125d8194", "width": 300}, {"height": 64, "url": "https://i.scdn.co/image/ab67616d000048514dd256ede43a7147125d8194", "width": 64}], "name": "Smile (with The Weeknd)", "release_date": "2020-08-07", "release_date_precision": "day", "total_tracks": 1, "type": "album", "uri": "spotify:album:1NJfa8mJWJjYzigrMU6Fd3"}, {"album_type": "single", "artists": [{"external_urls": {"spotify": "https://open.spotify.com/artist/26VFTg2z8YR0cCuwLzESi2"}, "href": "https://api.spotify.com/v1/artists/26VFTg2z8YR0cCuwLzESi2", "id": "26VFTg2z8YR0cCuwLzESi2", "name": "Halsey", "type": "artist", "uri": "spotify:artist:26VFTg2z8YR0cCuwLzESi2"}, {"external_urls": {"spotify": "https://open.spotify.com/artist/4MCBfE4596Uoi2O4DtmEMz"}, "href": "https://api.spotify.com/v1/artists/4MCBfE4596Uoi2O4DtmEMz", "id": "4MCBfE4596Uoi2O4DtmEMz", "name": "Juice WRLD", "type": "artist", "uri": "spotify:artist:4MCBfE4596Uoi2O4DtmEMz"}], "external_urls": {"spotify": "https://open.spotify.com/album/6JFsisjpUarmCfG3lrfP4Q"}, "href": "https://api.spotify.com/v1/albums/6JFsisjpUarmCfG3lrfP4Q", "id": "6JFsisjpUarmCfG3lrfP4Q", "images": [{"height": 640, "url": "https://i.scdn.co/image/ab67616d0000b27384a5651f3ab1604570ea0405", "width": 640}, {"height": 300, "url": "https://i.scdn.co/image/ab67616d00001e0284a5651f3ab1604570ea0405", "width": 300}, {"height": 64, "url": "https://i.scdn.co/image/ab67616d0000485184a5651f3ab1604570ea0405", "width": 64}], "name": "Without Me (with Juice WRLD)", "release_date": "2019-01-09", "release_date_precision": "day", "total_tracks": 1, "type": "album", "uri": "spotify:album:6JFsisjpUarmCfG3lrfP4Q"}, {"album_type": "album", "artists": [{"external_urls": {"spotify": "https://open.spotify.com/artist/4MCBfE4596Uoi2O4DtmEMz"}, "href": "https://api.spotify.com/v1/artists/4MCBfE4596Uoi2O4DtmEMz", "id": "4MCBfE4596Uoi2O4DtmEMz", "name": "Juice WRLD", "type": "artist", "uri": "spotify:artist:4MCBfE4596Uoi2O4DtmEMz"}], "external_urls": {"spotify": "https://open.spotify.com/album/6XjQzQnap7YKNU7J15HFdI"}, "href": "https://api.spotify.com/v1/albums/6XjQzQnap7YKNU7J15HFdI", "id": "6XjQzQnap7YKNU7J15HFdI", "images": [{"height": 640, "url": "https://i.scdn.co/image/ab67616d0000b2739fafa2d1b91958bcd1cd6408", "width": 640}, {"height": 300, "url": "https://i.scdn.co/image/ab67616d00001e029fafa2d1b91958bcd1cd6408", "width": 300}, {"height": 64, "url": "https://i.scdn.co/image/ab67616d000048519fafa2d1b91958bcd1cd6408", "width": 64}], "name": "Death Race For Love", "release_date": "2019-03-08", "release_date_precision": "day", "total_tracks": 22, "type": "album", "uri": "spotify:album:6XjQzQnap7YKNU7J15HFdI"}], "limit": 20, "next": "https://api.spotify.com/v1/search?query=juice+wrld&type=album&market=US&offset=20&limit=20", "offset": 0, "previous": null, "total": 153}}